id,название,цена,бренд,продаж,рейтинг,в наличии
98673166,MPG Z690 EDGE WIFI DDR4 [911-7D31-010],24953.0,MSI,22,5,53
141125827,Материнская плата H510M-A PRO,7528.0,MSI,0,3,124
98673173,PRO Z690-A WIFI DDR4 [911-7D25-049],17731.0,MSI,8,2,53
156435810,Мат. плата MAG B660M BOMBER DDR4 LGA1700 mATX,8263.0,MSI,9,3,72
123809897,Мат. плата PRO B660M-G DDR4 Micro ATX LGA1700,9896.0,MSI,15,1,53
151158946,Материнская плата A320M PRO-VH,6211.0,MSI,2,0,41
27382286,Мышь Clutch GM11 черный,1915.0,MSI,4,4,3
98673172,PRO Z690-P DDR4 [911-7D36-001],14842.0,MSI,0,5,53
156549910,GeForce GTX 1660 SUPER VENTUS XS OC (Refurbished),16272.0,MSI,16,5,116
27386763,Клавиатура Vigor GK20 RU черный,2880.0,MSI,0,5,6
133904937,RTX 3060 GAMING Z TRIO 12 Gb,52970.0,MSI,0,5,221
75792397,Материнская плата H510 S1200 MATX H510M PRO-E,8945.0,MSI,0,5,112
94454361,Халат мужской махровый с капюшоном домашний,4567.0,MSI,4,0,105
34359188,Мышь Clutch GM41 черный красный,4056.0,MSI,0,0,3
140244273,Видеокарта 4 гб. GeForce GTX 1630 VENTUS XS OC,16920.0,MSI,0,5,42
149489279,Коврик для мышки AGILITY GD20,721.0,MSI,14,5,7
139719851,Видеокарта PCIE16 GTX1660 SUPER 6GB GTX 1660 SUPER GAMING X,29981.0,MSI,0,5,89
27386765,Клавиатура Vigor GK50 Low Profile RU механическая черный,8764.0,MSI,4,0,3
147266704,"Мышь Clutch GM11 белая, оптическая",1921.0,MSI,2,5,19
147100796,Материнская плата A320M-A Pro,5532.0,MSI,6,1,53
133196657,Материнская плата Z590 S1200 ATX MAG Z590 TORPEDO,12659.0,MSI,0,3,168
109533851,Спортивный костюм мужской без начеса весна худи джоггеры,7091.0,MSI,6,4,116
94412802,Халат мужской махровый с капюшоном домашний,4498.0,MSI,11,0,105
27382276,Коврик для мыши AGILITY GD30 Большой черный 450x400x3мм,1288.0,MSI,1,5,39
19354928,Мышь Clutch GM50 черный оптическая (7200dpi) USB2.0,4270.0,MSI,0,5,3
148027423,Видеокарта,17743.0,MSI,6,5,85
152697187,Клавиатура для GL62 GL73 GP62 GP62M GP72 GP72VR,2306.0,MSI,0,0,16
140696590,Видеокарта GeForce GTX 1660 SUPER GAMING X,32714.0,MSI,0,0,85
109538809,Спортивный костюм мужской без начеса весна худи джоггеры,7093.0,MSI,6,4,116
109530683,Спортивный костюм мужской без начеса весна худи джоггеры,7091.0,MSI,0,4,116
94416919,Халат мужской махровый с капюшоном домашний,5446.0,MSI,6,0,105
94437675,Халат мужской махровый с капюшоном домашний,5446.0,MSI,5,0,105
94452731,Халат мужской махровый с капюшоном домашний,4567.0,MSI,6,0,105
94454958,Халат мужской махровый с капюшоном домашний,4567.0,MSI,6,0,105
97745927,Брюки спортивные джоггеры штаны мужские,3043.0,MSI,9,0,45
133196673,Материнская плата H610 S1700 MATX PRO H610M-E DDR4,7265.0,MSI,0,0,112
139678411,Материнская плата AMD B650 SAM5 ATX PRO B650-P WIFI,22290.0,MSI,0,0,124
97824238,Брюки спортивные джоггеры штаны мужские,2142.0,MSI,12,0,45
98673129,MAG Z690 TORPEDO [911-7D32-006],18588.0,MSI,11,3,53
61145954,"PRO AP241 11M-274RU 23.8"" 1920x1080 IPS Intel Core i7 11700…",100847.0,MSI,4,0,684
59063184,Мышь Clutch GM41 Lightweight черныйкрасный оптическая 20000d…,9795.0,MSI,0,0,4
141113714,Игровая мышь CLUTCH GM08,2305.0,MSI,0,5,12
70010391,"Видеокарта GT 730, N730K-2GD3 LP, 2ГБ, GDDR3",9174.0,MSI,0,0,539
30680764,Блок питания для ноутбука 19.5V 7.11A (5.5x2.5) 135W,3138.0,MSI,0,5,12
143251495,"Гарнитура Immerse GH30 Gaming, Black-Red",6276.0,MSI,5,5,66
27382269,Клавиатура GK50 ELITE RU механическая черный,8016.0,MSI,0,5,6
94298103,Спортивный костюм мужской без начеса весна худи джоггеры,3808.0,MSI,6,4,116
41150479,Шлейф для матрицы U100 U90 p n k19-3030028-h58,987.0,MSI,0,5,10
14433788,Игровая клавиатура VIGOR GK50 LOW PROFILE BLACK,9525.0,MSI,0,5,35
142764345,Материнская плата A520M-A PRO,7686.0,MSI,0,0,91
139719850,Видеокарта PCIE16 RX6750XT GAM X TRIO 12G,53331.0,MSI,11,0,89
143822341,Видеокарта GeForce RTX 4090 GAMING X TRIO 24G,211592.0,MSI,6,0,158
122779059,Мышь Optical Gaming Clutch GM41,4013.0,MSI,2,0,34
153623782,Мат. плата MEG Z790 ACE LGA1700 Intel Z790 DDR5 WiFi ATX,75434.0,MSI,0,0,120
41495786,Видеокарта,75990.0,MSI,0,0,85
139719862,Видеокарта PCIE16 RX6800 GAMING Z TRIO 16G,64221.0,MSI,0,0,89
141149524,"Видеокарта GeForce RTX3060 GAMING, 12G GDDR6",53458.0,MSI,0,0,32
39643893,Видеокарта Radeon RX 6900 AMD 16 Gb GDDR6 256 bit RTL [RX 69…,63533.0,MSI,0,0,60
153622889,Мат. плата MEG Z690 UNIFY-X LGA1700 DDR5 WiFi ATX,45333.0,MSI,0,0,120
154613925,Мат. плата MPG Z690 CARBON WIFI,30289.0,MSI,0,0,120
153625659,Мат. плата MPG X570S EDGE MAX WIFI AM4 DDR4 WIFI ATX,29940.0,MSI,0,0,120
150953995,"Видеокарта Radeon RX 6600 MECH 2X 8G, Retail",31057.0,MSI,0,0,76
153640448,Мат. плата PRO Z790-P WIFI LGA1700 DDR5 WIFI ATX,27456.0,MSI,0,0,120
98673152,PRO Z690-A DDR4 [911-7D25-048],23605.0,MSI,0,0,53
153618935,Мат. плата MAG B760M MORTAR WIFI LGA1700 DDR5 mATX,23291.0,MSI,0,0,120
146351374,Материнская плата MAG B760M MORTAR WIFI,21460.0,MSI,0,0,53
153621051,Мат. плата MAG B760M MORTAR WIFI DDR4 LGA1700 DDR4 mATX,21408.0,MSI,0,0,120
149879715,Видеокарта GeForce GTX1650 VENTUS XS 4G OCV1,18380.0,MSI,0,0,315
153587948,Материнская плата MAG B560 TOMAHAWK WIFI,16611.0,MSI,0,0,73
151944033,Материнская плата PRO H610M-G,10283.0,MSI,0,0,55
140242996,Видеокарта AMD Radeon 4 ГБ. RX 550 AERO ITX OC,9432.0,MSI,0,0,42
36321707,Аккумулятор для ноутбука GS63 GS63VR GS73 GS73VR (11.4V,7328.0,MSI,0,0,30
36047995,Клавиатура для ноутбука GE62VR GE72VR GS63VR GS73VR,5106.0,MSI,0,0,40
94435925,Халат мужской махровый с капюшоном домашний,5446.0,MSI,0,0,105
94436502,Халат мужской махровый с капюшоном домашний,5446.0,MSI,0,0,105
97829893,Халат мужской махровый с капюшоном домашний,4567.0,MSI,6,0,105
94299282,Спортивный костюм мужской без начеса весна худи джоггеры,4389.0,MSI,0,4,116
94457597,Халат мужской махровый с капюшоном домашний,3967.0,MSI,6,0,105
147278250,Компьютерная мышь Clutch GM08,3006.0,MSI,0,0,306
109550831,Нательное белье теплое,3182.0,MSI,6,0,45
140351551,Термобелье теплое комплект,2679.0,MSI,0,0,58
151940426,Моноблок AM242P 12M-090RU (9S6-AE0711-201),107246.0,MSI,0,0,653
75085322,Мышка CLUTCH GM11 USB OPTICAL GAMING,1730.0,MSI,0,3,2
90078023,Видеокарта Geforce RTX 2060 6Gb NVidia,30114.0,MSI,21,5,85
100769521,Видеокарта GeForce RTX 3050 8 ГБ,25828.0,MSI,23,5,55
19354926,Мышь Clutch GM20 ELITE черный оптическая (6200dpi) USB2.0,3136.0,MSI,0,1,4
140702980,Материнская плата MAG Z690 TOMAHAWK WIFI DDR4,24219.0,MSI,13,0,66
76240322,Коврик игровой AGILITY GD30 GAMING MOUSEPAD,1784.0,MSI,0,5,57
136980975,Комплект H510 i5 10400f ddr 4 16gb,24613.0,MSI,0,5,8
158036230,Видеокарта GeForce RTX 3090 SUPRIM X 24G,281999.0,MSI,0,0,167
147944131,Видеокарта NVIDIA GeForce RTX 4070 Ti GAMING X TRIO 12G 12ГБ,111381.0,MSI,0,0,129
160599454,Материнская плата MEG Z690 ACE,73666.0,MSI,0,0,675
160053578,Видеокарта GeForce RTX 3070 GAMING Z TRIO 8G LHR,58879.0,MSI,0,0,111
160599588,Материнская плата MPG Z690 CARBON WIFI,52329.0,MSI,0,0,96
113476982,Видеокарта GeForce RTX 2060 VENTUS 12G OC 12GB,46034.0,MSI,0,0,95
160599198,Материнская плата Z690 EDGE WIFI DDR4,41719.0,MSI,0,0,66
160599150,Материнская плата MAG Z690 TOMAHAWK WIFI DDR4,32070.0,MSI,0,0,53
160599767,Материнская плата MAG X570S TORPEDO MAX,31960.0,MSI,0,0,114
140700121,Материнская плата MAG Z690 TORPEDO EK X,31713.0,MSI,0,0,138
160600056,Материнская плата MAG B760M MORTAR WIFI,28423.0,MSI,0,0,53
160600057,Материнская плата MAG B760M MORTAR WIFI,28412.0,MSI,0,0,53
147949394,Видеокарта NVIDIA GeForce GTX 1660 SUPER VENTUS XS OC,25850.0,MSI,0,0,48
160599381,Материнская плата PRO Z690-P DDR4 [911-7D36-001],25080.0,MSI,0,0,53
160599252,Материнская плата PRO Z690-A DDR4 [911-7D25-048],23110.0,MSI,0,0,53
160598915,Материнская плата Z590 S1200 ATX MPG,19896.0,MSI,0,0,76
160598536,Материнская плата MAG B560M MORTAR,17834.0,MSI,0,0,160
160598797,Материнская плата MAG TOMAHAWK WIFI,17127.0,MSI,0,0,80
160493806,Материнская плата B550-A PRO Soc-AM4 AMD B550,16796.0,MSI,0,0,41
160492779,Материнская плата B450 GAMING PLUS MAX,14584.0,MSI,0,0,78
160494261,Материнская плата Z490 S1200 ATX Z490-A PRO,13418.0,MSI,0,0,66
160599722,Материнская плата PRO B660M-E DDR4 Micro-ATX Soc-1700,13306.0,MSI,0,0,70
160599721,Материнская плата PRO B660M-E DDR4 Micro-ATX Soc-1700,13076.0,MSI,0,0,70
160599720,Материнская плата PRO B660M-E DDR4 Micro-ATX Soc-1700,12036.0,MSI,0,0,70
160495426,Материнская плата H510M PRO,10854.0,MSI,0,0,41
160599082,Материнская плата PRO H610M-E DDR4,10738.0,MSI,0,0,41
160597790,Материнская плата B560M-A PRO,10392.0,MSI,0,0,41
160597694,Материнская плата B560M PRO-E,9352.0,MSI,0,0,41
160598952,Материнская плата PRO H610M-E DDR4,9052.0,MSI,0,0,41
160494899,Материнская плата H510M PRO-E,8420.0,MSI,0,0,160
160494601,Материнская плата PRO H410M-B,8131.0,MSI,0,0,160
160493372,Материнская плата A520M-A PRO,7059.0,MSI,0,0,49
160492999,Материнская плата A320M-A Pro,6636.0,MSI,0,0,39
36322656,Аккумулятор для ноутбука GT60 GT70 GT660 GT663 GT670,4141.0,MSI,0,0,30
94300001,Спортивный костюм мужской без начеса весна худи джоггеры,4391.0,MSI,6,4,116
162630340,"Коврик для мыши GD20, черный",1524.0,MSI,0,0,88
145810086,Кулер для Katana GF66 GF76 Pulse GL66 GL76 Маленьки,1703.0,MSI,3,2,3
145653358,Материнская плата PRO B660M-E DDR4 Micro-ATX Soc-1700,8306.0,MSI,9,5,70
95587958,RTX 3060 GAMING X 12Gb,50402.0,MSI,3,5,221
74753601,Мышка USB OPTICAL GAMING CLUTCH GM11,3307.0,MSI,0,0,6
153587971,Материнская плата Z490 S1200 ATX Z490-A PRO,13261.0,MSI,10,0,66
149071326,Материнская плата AMD B650 SAM5 ATX PRO B650-P WIFI,29398.0,MSI,0,0,66
153587988,Материнская плата PRO H610M-G,10298.0,MSI,2,0,41
73813508,Видеокарта GeForce GT 1030 Aero ITX 2GD4 OC 2GB,12187.0,MSI,0,0,76
75792366,Материнская плата A320M-A PRO Soc-AM4 AMD A320 2xDDR4 mATX A…,7402.0,MSI,0,0,105
153397840,Видеокарта GeForce RTX 4090 SUPRIM X 24Gb,271790.0,MSI,0,0,178
153397829,Видеокарта GeForce RTX 3060 Ti GAMING Z TRIO 8G LHR,68556.0,MSI,0,0,114
164137798,Материнская плата MEG Z690 ACE,68220.0,MSI,0,0,104
153397824,Видеокарта GeForce RTX 3060 Ti GAMING X 8G LHR,64844.0,MSI,0,0,89
147279499,Видеокарта RX 6650 XT GAMING X 8G,57043.0,MSI,0,0,990
153397838,Видеокарта GeForce RTX 3060 GAMING X 12G RTL,52123.0,MSI,0,0,92
160025118,RTX 3060 GAMING X 12G,50754.0,MSI,0,0,92
153397834,Видеокарта GeForce RTX 3060 VENTUS 2X 12G OC,49452.0,MSI,0,0,48
141335244,Видеокарта PCI-E 4.0 RTX 3060 GAMING,48515.0,MSI,0,0,92
141335241,Видеокарта PCI-E 4.0 RTX 3050 GAMING,42362.0,MSI,0,0,92
153397825,Видеокарта GeForce RTX 3050 8Gb Gaming X,41943.0,MSI,0,0,82
153587954,Материнская плата MPG Z690 EDGE WIFI,41936.0,MSI,0,0,64
153397827,Видеокарта GeForce RTX 3050 8Gb AERO ITX OC,37308.0,MSI,0,0,50
163435316,GeForce RTX 3050 Ventus 2X 8 Gb OCV1,33727.0,MSI,0,0,125
153587939,Материнская плата PRO Z690-A WIFI,29911.0,MSI,0,0,69
162433253,GeForce GTX 1660 SUPER VENTUS XS OC (NEW 100%),26965.0,MSI,0,0,116
146370516,Материнская плата MAG TOMAHAWK WIFI,26029.0,MSI,0,0,80
153901284,Видеокарта GeForce GTX 1660 SUPER VENTUS XS OC 6GB,24617.0,MSI,5,0,86
149071320,Материнская плата (MPG Z490 GAMING EDGE WIFI),24277.0,MSI,0,0,72
146370478,Материнская плата MAG TOMAHAWK WIFI,24103.0,MSI,0,0,80
164098706,Игровая,22853.0,MSI,0,0,50
146370436,Материнская плата MAG MORTAR,22177.0,MSI,0,0,80
146370490,Материнская плата PRO,22177.0,MSI,0,0,80
146370477,Материнская плата B550 GAMING,22177.0,MSI,0,0,80
146370447,Материнская плата PRO-VDH WIFI,22177.0,MSI,0,0,80
101643124,Видеокарта RX 6500 XT MECH,21951.0,MSI,0,0,15
146370485,Материнская плата MAG TORPEDO,21214.0,MSI,0,0,80
149071309,Материнская плата X570-A PRO Soc-AM4 AMD X570 4xDDR4 ATX,20667.0,MSI,0,0,60
146370496,Материнская плата PRO WIFI,20251.0,MSI,0,0,80
146370509,Материнская плата PRO,20251.0,MSI,0,0,80
146370518,Материнская плата PRO,20251.0,MSI,0,0,80
153587989,Материнская плата Z590 S1200 ATX MPG Z590 GAMING PLUS,20091.0,MSI,0,0,76
137948047,Материнская плата MAG B550M MORTAR MAX WIFI,19460.0,MSI,0,0,212
146370434,Материнская плата PRO WIFI,19288.0,MSI,0,0,80
146370465,Материнская плата PRO,18325.0,MSI,0,0,80
146370432,Материнская плата MPG GAMING PLUS,18325.0,MSI,0,0,80
146370519,Материнская плата PRO DDR4,18325.0,MSI,0,0,80
146370461,Материнская плата GAMING PLUS MAX,18325.0,MSI,0,0,80
163319568,"Корпус MPG VELOX 100R, Black",19653.0,MSI,0,0,1143
149071310,Материнская плата B560 S1200 MATX MAG B560M MORTAR,17806.0,MSI,0,0,36
146370527,"Материнская плата LGA 1700, Intel B660",17362.0,MSI,0,0,80
72685625,Блок питания ATX 750W MPG A750GF,18207.0,MSI,0,0,79
153587961,Материнская плата Z590-A PRO,16963.0,MSI,0,0,66
153587986,Материнская плата B560-A PRO,16685.0,MSI,0,0,66
146370486,"Материнская плата LGA 1700, Intel B660",16399.0,MSI,0,0,80
146370484,Материнская плата,16399.0,MSI,0,0,80
146370452,"Материнская плата LGA 1200, Intel B560",15436.0,MSI,0,0,80
146370524,"Материнская плата LGA 1700, Intel H610",14473.0,MSI,0,0,80
146370467,"Материнская плата LGA 1700, Intel H610",14088.0,MSI,0,0,80
153587985,Материнская плата B450 GAMING PLUS MAX,13843.0,MSI,0,0,78
72685744,Блок питания ATX 650W MPG A650GF,14282.0,MSI,0,0,79
146370481,"Материнская плата PRO LGA 1700, Intel H610",13510.0,MSI,0,0,80
153587922,Материнская плата PRO B660M-G DDR4,13369.0,MSI,0,0,41
153587960,Материнская плата PRO B660M-B DDR4,13101.0,MSI,0,0,41
146370515,"Материнская плата LGA 1200, Intel H510",12932.0,MSI,0,0,80
146370522,"Материнская плата LGA 1200, Intel H510",12547.0,MSI,0,0,80
146370466,"Материнская плата AM4, AMD A520",11199.0,MSI,0,0,80
149071324,Материнская плата H610 S1700 MATX PRO H610M-G DDR4,11100.0,MSI,0,0,66
75792175,Материнская плата B560M-A PRO (B560M-A PRO),10966.0,MSI,0,0,60
153587947,Материнская плата PRO H610M-B DDR4,10940.0,MSI,0,0,41
146370462,"Материнская плата AM4, AMD A32",10621.0,MSI,0,0,80
153587967,Материнская плата H510M PRO,10523.0,MSI,0,0,41
153587970,Материнская плата B560M-A PRO,10479.0,MSI,0,0,39
146370455,Материнская плата O,10236.0,MSI,0,0,80
42437143,Клавиатура игровая S11-04RU225-GA7,9563.0,MSI,0,0,58
133086127,"Корпус компьютерный MAG FORGE 100M Mid-Tower, ATX, mATX",8912.0,MSI,0,0,741
164226129,Материнская плата Micro ATX A320M-A PRO,6335.0,MSI,0,0,141
73813455,Видеокарта PCIE16 GT210 1GB GDDR3 N210-1GD3 LP,4919.0,MSI,0,0,19
147268296,"Мышь Clutch GM41 Lightweight V2, цвет черный",4925.0,MSI,0,0,12
145810085,Кулер для Katana GF66 GF76 Pulse GL66 GL76 Большой,1596.0,MSI,4,2,3
117269622,Материнская плата MEG X570 ACE AM4 ATX,54763.0,MSI,0,0,70
136823366,Материнская плата MPG B550 Gaming Plus AM4 ATX,38983.0,MSI,0,0,85
163537566,Материнская плата MPG B550 Gaming Plus AM4 ATX,29481.0,MSI,0,0,35
153587919,Материнская плата A520M-A PRO,7238.0,MSI,6,1,42
153587959,Материнская плата MPG Z490 GAMING PLUS,13891.0,MSI,5,0,83
146802451,Видеокарта GeForce N210 512 Мб DDR3,4303.0,MSI,1,0,50
94301579,Спортивный костюм мужской без начеса весна худи джоггеры,7122.0,MSI,6,4,116
109009749,Футболка хлопок однотонная,727.0,MSI,11,0,18
39040138,Видеокарта GeForce RTX 3060 VENTUS 2X OC 12GB LHR,42516.0,MSI,0,1,41
39884708,Видеокарта GeForce GTX 1660 Ti 6 Gb,92059.0,MSI,0,0,82
163446992,Блок питания для ноутбука Katana GF66 GF76 Pulse 180W,3217.0,MSI,0,0,23
163445137,Блок питания для ноутбука Katana GF66 GF76 Pulse 150W,3109.0,MSI,0,0,22
145049217,Клавиатура для GL62 GL73 GP62 GP62M GP72 GP72VR,2914.0,MSI,0,0,16
163449509,Клавиатура для GL62 GL73 GP62 GP62M GP72 GP72VR,2313.0,MSI,0,0,16
160894787,Кулер PAAD06015SL N384 для ноутбука GE63VR GE72VR GPU,1809.0,MSI,0,0,2
94574999,Футболка хлопок однотонная,1608.0,MSI,6,0,18
140648838,GeForce RTX 3070 Ti GAMING X TRIO 8G,83676.0,MSI,0,0,221
161177832,Видеокарта GeForce RTX 4070 GAMING X TRIO 12G,95342.0,MSI,0,0,221
146321026,Материнская плата [PRO H610M-E DDR4],7862.0,MSI,0,0,53
123984058,Материнская плата [B560M PRO-E],7182.0,MSI,4,0,53
146051456,Материнская плата H510M-A Pro,6161.0,MSI,0,3,55
163344370,"Джойстик игровой, геймпад, контроллер",9659.0,MSI,0,0,42
140875450,Видеокарта GeForce RTX 3060 Ti Ventus 3X OC,48926.0,MSI,0,0,128
140793508,Видеокарта GeForce RTX 3060 Ti Ventus 2X OC,48471.0,MSI,0,5,123
163742438,Видеокарта GeForce RTX 3050 Gaming X 8 ГБ,35593.0,MSI,0,0,120
146255638,Материнская плата PRO B660M-B DDR4,11913.0,MSI,0,0,63
145493407,Видеокарта GeForce GT 1030 LP OC 2 ГБ,10089.0,MSI,0,0,15
146319634,Материнская плата [PRO B660M-E DDR4],8633.0,MSI,0,0,55
149092291,Вентиляторы для видеокарты AERO ITX OC 95мм,790.0,MSI,3,4,10
123374152,Видеокарта GeForce RTX 3050 GAMING X 8G,32931.0,MSI,0,1,135
101643106,Видеокарта GTX 1630 VENTUS,19601.0,MSI,0,4,10
151948419,Материнская плата MAG B660M Bazooka,18355.0,MSI,0,0,81
39592504,Вентилятор Кулер для ноутбука GF75 GPU p n PAAD06015SL,2351.0,MSI,0,0,10
41163185,Шлейф для матрицы GE70 P N K19-3040026-H39,773.0,MSI,5,0,10
36050852,Клавиатура для ноутбука CX640 CR640 P n,1415.0,MSI,0,5,40
41147624,Шлейф для матрицы GE63 MS16P1 MS-16P6 30pin P N,1479.0,MSI,0,5,10
68780710,Шлейф для матрицы GL62 P N K1N-3040071-H39,1008.0,MSI,4,0,10
35940378,Вентилятор Кулер для ноутбука CX600 CR600 CR420 ORG p n,751.0,MSI,0,0,10
35937114,Вентилятор Кулер для ноутбука GE63VR GE72VR GL63,2529.0,MSI,3,0,11
35941803,Вентилятор Кулер для ноутбука U160 p n 4510M05F PF1,1629.0,MSI,0,0,10
120850457,"Блок питания для ноутбука 20V 2A (5.5x2.5) 40W, 1 шт",1557.0,MSI,0,0,12
30680752,Блок питания для ноутбука 19.5V 9.5A (7.4x5.0) 180W,4488.0,MSI,4,0,12
36050525,Клавиатура для ноутбука CX620 GT660 P n V111922AK1,3683.0,MSI,0,0,40
68746058,"Блок питания для ноутбука 19 V, 4.74 A, 4.5x3.0, 90 W",2851.0,MSI,0,0,12
35941810,Вентилятор Кулер для ноутбука GT72 p n PABD19735BM,1629.0,MSI,9,4,10
41147634,Шлейф для матрицы GP63 MS-16P6 P N K1N-3040099-H39,1115.0,MSI,8,4,10
41155956,Шлейф для матрицы GF63 P N K1N-3040108-H39,1072.0,MSI,6,0,10
41150200,Шлейф для матрицы GE62 P N K1N.3040035.H39,880.0,MSI,4,0,10
35941818,Вентилятор Кулер для ноутбука EX200 VX600X p n,548.0,MSI,1,0,10
153744491,Видеокарта AMD Radeon RX 570 ARMOR 8G OC GDDR5 Б У,13190.0,MSI,0,0,63
164709396,Материнская плата,8859.0,MSI,0,0,36
164709391,Материнская плата,7837.0,MSI,0,0,24
161959734,Материнская плата H270-A PRO б у,5602.0,MSI,0,0,63
161959716,Материнская плата,4267.0,MSI,0,0,120
35944160,Вентилятор Кулер для ноутбука GE70 p n PAAD06015SL,826.0,MSI,1,4,10
35943029,Вентилятор Кулер для ноутбука GE700 CR700 CX700 p n,2624.0,MSI,0,5,10
35944082,Вентилятор Кулер для ноутбука GE62 GE72 (Левый) p n,687.0,MSI,2,2,10
35935449,Вентилятор Кулер для ноутбука GE63VR GE72VR GL63 (Левый),3747.0,MSI,0,0,10
140695626,Видеокарта GeForce GTX 1650 D6 GAMING X,21455.0,MSI,4,0,83
36322644,Аккумулятор для ноутбука CR650 CX650 FR400 FR600 FR610,3145.0,MSI,12,0,30
35939449,Вентилятор Кулер для ноутбука GS63 GS73 CPU ORG p n,2506.0,MSI,0,0,10
35937243,Вентилятор Кулер для ноутбука GS65 GS75 CPU Original,2324.0,MSI,0,0,10
155350410,"Вентилятор Кулер для ноутбука WS65 CPU+GPU ORG, 1 шт",6497.0,MSI,0,0,10
155345246,"Аккумулятор для ноутбука GT72 OEM (11.1V 6600mAh), 1 шт",5499.0,MSI,0,0,30
155339993,"Блок питания для ноутбука 20.0V, 11.5A, 1 шт",5366.0,MSI,0,0,12
36052146,Клавиатура для ноутбука GE62 GE72 P n V143422GK1,4828.0,MSI,0,0,40
36322246,Аккумулятор для ноутбука M655 M660 M660M M662 M670 M673,4707.0,MSI,0,0,30
120848905,"Клавиатура для ноутбука, GS66, GE66, 1 шт",4721.0,MSI,0,0,40
155350449,"Вентилятор Кулер для ноутбука GL65 GL65 GP65, 1 шт",4678.0,MSI,0,0,10
155339966,"Блок питания для ноутбука 20V, 9A, 1 шт",4488.0,MSI,0,0,12
36052419,Клавиатура для ноутбука GE62 GE72 без подсветки P n,4443.0,MSI,0,0,40
36052446,Клавиатура для ноутбука GF62 GF62VR GP63 GP73 с,4250.0,MSI,0,0,40
68732791,"Клавиатура для ноутбука GS65, GS65VR, c подсветкой",3994.0,MSI,13,0,40
36047570,Клавиатура для ноутбука GS65 GS65VR С подсветкой (ENG),3994.0,MSI,0,0,40
36322182,Аккумулятор для ноутбука DNS 0142750 0151279 0153733,3787.0,MSI,0,0,30
36052408,Клавиатура для ноутбука GE60 GE70 с креплениями P n,3694.0,MSI,0,0,40
36322102,Аккумулятор для ноутбука 0142750 0151279 0153733 0156461,2995.0,MSI,0,0,30
35935085,Вентилятор Кулер для ноутбука GT62VR p n,2859.0,MSI,0,0,10
41155020,Шлейф для матрицы GX610 EX610 P N K19-3040002-H39,2859.0,MSI,0,0,10
35939380,Вентилятор Кулер для ноутбука GS63 GS73 VGA ORG p n,2806.0,MSI,0,0,10
39384095,Клавиатура для GF63 серебро с подсветкой P n NSK-FDABN,2774.0,MSI,0,0,40
36048075,Клавиатура для ноутбука CR400 CR420,2774.0,MSI,0,0,40
97842199,Спортивный костюм мужской без начеса весна худи джоггеры,3263.0,MSI,0,4,116
35934489,Вентилятор Кулер для ноутбука GT73 GT75 L p n,2559.0,MSI,0,0,10
68779536,"Вентилятор, кулер для ноутбука PS42",2538.0,MSI,0,0,10
39592507,Вентилятор Кулер для ноутбука GP65 Left p n PABD07012SH,2174.0,MSI,0,0,10
88537330,Вентилятор-Кулер для ноутбука GT80 GT83 GT83VR ORG p n -,2174.0,MSI,0,0,10
41149349,Шлейф для матрицы GE40 CR42 MS149X 30 pin p n,2174.0,MSI,0,0,10
36049103,Клавиатура для ноутбука CX640 CR640 рамка P n,2100.0,MSI,0,0,18
35944646,Вентилятор Кулер для ноутбука GX620 GX640 p n,1596.0,MSI,0,0,10
41154996,Шлейф для матрицы GX600 p n K19-3040001-H39,1596.0,MSI,0,0,10
68780747,Шлейф для матрицы GT72 P N K19-3030042-H39,1596.0,MSI,0,0,10
35937582,Вентилятор Кулер для ноутбука GV62 GL62M GL62VR PE62,1554.0,MSI,0,0,10
36051221,Клавиатура для ноутбука Wind U90 U100 U110 U120 P n,1597.0,MSI,0,0,40
155350716,"Вентилятор Кулер для ноутбука PS42 CPU, 1 шт",1468.0,MSI,0,0,10
41155005,Шлейф для матрицы GT70 P N K19-3031005-H39,1468.0,MSI,0,0,10
155356050,"Шлейф для матрицы, GL63, pn K1N-3040080-H39, 1 шт",1361.0,MSI,0,0,10
155356777,"Шлейф для матрицы, GE63, pn K1N-3040080-H39, 1 шт",1361.0,MSI,0,0,10
41155024,Шлейф для матрицы EX600 P N K19-3036002-H39,1243.0,MSI,0,0,10
155350163,"Вентилятор Кулер для ноутбука GE62VR GE72VR, 1 шт",1190.0,MSI,0,0,10
41151564,Шлейф для матрицы CR420 CR400 EX460 EX400 CX420 P N,1019.0,MSI,0,0,10
41155014,Шлейф для матрицы EX620 P N K19-3040009-H39,1019.0,MSI,0,0,10
41150197,Шлейф для матрицы GE72 P N K1N-3040026-H39,1019.0,MSI,0,0,10
41149465,Шлейф для матрицы GL72 PE70 P N K1N-3040026-H39,965.0,MSI,0,0,10
35942742,Вентилятор Кулер для ноутбука X320 p n 6010H05F PFR,783.0,MSI,0,0,10
41150457,Шлейф для матрицы GX400 VR400 p n K19-3030025-H58,783.0,MSI,0,0,10
35938928,Вентилятор Кулер для ноутбука GS60 p n PAAD06015SL N293,762.0,MSI,0,0,10
35941807,Вентилятор Кулер для ноутбука GX700 p n DFS481305MC0T,676.0,MSI,0,0,10
35942067,Вентилятор Кулер для ноутбука GE60 p n PAAD06015SL,826.0,MSI,3,3,10
35939682,Вентилятор Кулер для ноутбука GE62 GE72 (Правый) p n,708.0,MSI,0,3,10
35938368,Вентилятор Кулер для ноутбука GE62 GE72 (Левый) Original,1457.0,MSI,18,1,10
35938427,Вентилятор Кулер для ноутбука GE62 GE72 (Правый)Original,1243.0,MSI,0,1,10
35935424,Вентилятор Кулер для ноутбука GS70 GS72 правый p n,1115.0,MSI,0,1,10
42263921,Вентилятор Кулер для ноутбука GS60 p n PAAD06015SL N294,751.0,MSI,1,1,10
35944078,Вентилятор Кулер для ноутбука GT60 GT70 (0.45A) p n,847.0,MSI,0,2,10
36323122,Аккумулятор для ноутбука GE62 GE72 GP62 PE60 PE70 GP62,3112.0,MSI,0,1,30
39592502,Вентилятор Кулер для ноутбука GF75 CPU p n PAAD06015SL,2955.0,MSI,0,1,10
36051204,Клавиатура для ноутбука Wind U160 U135 L1350 P n,1971.0,MSI,0,1,40
35937519,Вентилятор Кулер для ноутбука GE70 Original p n,1019.0,MSI,0,1,10
